(module 0603 (layer F.Cu) (tedit 56F3A4AD)
  (fp_text reference REF** (at 0.1 1.4) (layer F.SilkS)
    (effects (font (size 1 1) (thickness 0.15)))
  )
  (fp_text value 0603 (at 0 -1.2) (layer F.Fab) hide
    (effects (font (size 1 1) (thickness 0.15)))
  )
  (fp_line (start -1.3 -0.5) (end 1.3 -0.5) (layer F.SilkS) (width 0.15))
  (fp_line (start 1.3 -0.5) (end 1.3 0.5) (layer F.SilkS) (width 0.15))
  (fp_line (start 1.3 0.5) (end -1.3 0.5) (layer F.SilkS) (width 0.15))
  (fp_line (start -1.3 0.5) (end -1.3 -0.5) (layer F.SilkS) (width 0.15))
  (pad 1 smd rect (at 0.8 0) (size 0.8 0.8) (layers F.Cu F.Paste F.Mask))
  (pad 2 smd rect (at -0.8 0) (size 0.8 0.8) (layers F.Cu F.Paste F.Mask))
)
