(module TO-262 (layer F.Cu) (tedit 57C94049)
  (fp_text reference REF** (at 0 2.54) (layer F.SilkS)
    (effects (font (size 1 1) (thickness 0.15)))
  )
  (fp_text value TO-262 (at 0 -3.81) (layer F.Fab)
    (effects (font (size 1 1) (thickness 0.15)))
  )
  (fp_line (start -3.81 -1.27) (end 3.81 -1.27) (layer F.SilkS) (width 0.15))
  (fp_line (start -3.81 1.27) (end -3.81 -2.54) (layer F.SilkS) (width 0.15))
  (fp_line (start -3.81 -2.54) (end 3.81 -2.54) (layer F.SilkS) (width 0.15))
  (fp_line (start 3.81 -2.54) (end 3.81 1.27) (layer F.SilkS) (width 0.15))
  (fp_line (start 3.81 1.27) (end -3.81 1.27) (layer F.SilkS) (width 0.15))
  (pad D thru_hole circle (at 0 0) (size 1.7 1.7) (drill 0.95) (layers *.Cu *.Mask F.SilkS))
  (pad S thru_hole circle (at 2.54 0) (size 1.7 1.7) (drill 0.95) (layers *.Cu *.Mask F.SilkS))
  (pad G thru_hole circle (at -2.54 0) (size 1.7 1.7) (drill 0.95) (layers *.Cu *.Mask F.SilkS))
)
