(module M2.5 (layer F.Cu) (tedit 571789C3)
  (fp_text reference REF** (at 0 3.81) (layer F.SilkS)
    (effects (font (size 1 1) (thickness 0.15)))
  )
  (fp_text value M2.5 (at 0 -3.81) (layer F.Fab) hide
    (effects (font (size 1 1) (thickness 0.15)))
  )
  (pad 1 thru_hole circle (at 0 0) (size 4.2 4.2) (drill 2.6) (layers *.Cu *.Mask F.SilkS))
)
