(module MICROUSB_B (layer F.Cu) (tedit 578A7038)
  (fp_text reference REF** (at 7 -2.5) (layer F.SilkS)
    (effects (font (size 1 1) (thickness 0.15)))
  )
  (fp_text value MICROUSB_B (at 0 -4.5) (layer F.Fab)
    (effects (font (size 1 1) (thickness 0.15)))
  )
  (fp_line (start 1.75 -2.75) (end 2.25 -2.75) (layer F.SilkS) (width 0.15))
  (fp_line (start -2.25 -2.75) (end -1.75 -2.75) (layer F.SilkS) (width 0.15))
  (fp_line (start 4 1) (end 4 1.5) (layer F.SilkS) (width 0.15))
  (fp_line (start -4 1) (end -4 1.5) (layer F.SilkS) (width 0.15))
  (fp_line (start 4 -1.5) (end 4 -1.25) (layer F.SilkS) (width 0.15))
  (fp_line (start -4 -1.5) (end -4 -1.25) (layer F.SilkS) (width 0.15))
  (fp_line (start -5 1.45) (end 5 1.45) (layer F.Fab) (width 0.15))
  (pad 5 smd rect (at 1.175 0) (size 1.85 1.9) (layers F.Cu F.Paste F.Mask))
  (pad 5 smd rect (at -1.175 0) (size 1.85 1.9) (layers F.Cu F.Paste F.Mask))
  (pad 5 smd rect (at -4.1 0) (size 1.85 1.9) (layers F.Cu F.Paste F.Mask))
  (pad 5 smd rect (at 4.1 0) (size 1.85 1.9) (layers F.Cu F.Paste F.Mask))
  (pad 3 smd rect (at 0 -2.675) (size 0.4 1.35) (layers F.Cu F.Paste F.Mask))
  (pad 4 smd rect (at 0.65 -2.675) (size 0.4 1.35) (layers F.Cu F.Paste F.Mask))
  (pad 5 smd rect (at 1.3 -2.675) (size 0.4 1.35) (layers F.Cu F.Paste F.Mask))
  (pad 2 smd rect (at -0.65 -2.675) (size 0.4 1.35) (layers F.Cu F.Paste F.Mask))
  (pad 1 smd rect (at -1.3 -2.675) (size 0.4 1.35) (layers F.Cu F.Paste F.Mask))
  (pad 5 smd rect (at -3.5 -2.5) (size 2.1 1.6) (layers F.Cu F.Paste F.Mask))
  (pad 5 smd rect (at 3.5 -2.5) (size 2.1 1.6) (layers F.Cu F.Paste F.Mask))
)
