(module PTSA_2.5Z_7 (layer F.Cu) (tedit 56EE79FE)
  (fp_text reference J1 (at 0 1.75) (layer F.SilkS) hide
    (effects (font (size 1 1) (thickness 0.15)))
  )
  (fp_text value PTSA_7 (at 0 -8) (layer F.SilkS)
    (effects (font (size 1 1) (thickness 0.15)))
  )
  (fp_line (start -8.75 -7.25) (end -8.75 4.5) (layer F.SilkS) (width 0.15))
  (fp_line (start -10.25 4.5) (end 8.75 4.5) (layer F.SilkS) (width 0.15))
  (fp_line (start -10.25 -7.25) (end -10.25 4.5) (layer F.SilkS) (width 0.15))
  (fp_line (start 8.75 -7.25) (end -10.25 -7.25) (layer F.SilkS) (width 0.15))
  (fp_line (start 8.75 4.5) (end 8.75 -7.25) (layer F.SilkS) (width 0.15))
  (pad 1 thru_hole circle (at 7.5 0) (size 1.8 1.8) (drill 1.1) (layers *.Cu *.Mask F.SilkS))
  (pad 7 thru_hole circle (at -7.5 0) (size 1.8 1.8) (drill 1.1) (layers *.Cu *.Mask F.SilkS))
  (pad 2 thru_hole circle (at 5 -5) (size 1.8 1.8) (drill 1.1) (layers *.Cu *.Mask F.SilkS))
  (pad 3 thru_hole circle (at 2.5 0) (size 1.8 1.8) (drill 1.1) (layers *.Cu *.Mask F.SilkS))
  (pad 4 thru_hole circle (at 0 -5) (size 1.8 1.8) (drill 1.1) (layers *.Cu *.Mask F.SilkS))
  (pad 5 thru_hole circle (at -2.5 0) (size 1.8 1.8) (drill 1.1) (layers *.Cu *.Mask F.SilkS))
  (pad 6 thru_hole circle (at -5 -5) (size 1.8 1.8) (drill 1.1) (layers *.Cu *.Mask F.SilkS))
)
