(module SMD_Header_2x8 (layer F.Cu) (tedit 56EEF9EF)
  (fp_text reference SMD (at 0 4.445) (layer F.SilkS) hide
    (effects (font (size 1 1) (thickness 0.15)))
  )
  (fp_text value SMD_Header_2x8 (at 0 -4.445) (layer F.SilkS)
    (effects (font (size 1 1) (thickness 0.15)))
  )
  (pad 3 smd rect (at -3.175 1.905) (size 0.76 2.4) (layers F.Cu F.Paste F.Mask))
  (pad 5 smd rect (at -1.905 1.905) (size 0.76 2.4) (layers F.Cu F.Paste F.Mask))
  (pad 7 smd rect (at -0.635 1.905) (size 0.76 2.4) (layers F.Cu F.Paste F.Mask))
  (pad 9 smd rect (at 0.635 1.905) (size 0.76 2.4) (layers F.Cu F.Paste F.Mask))
  (pad 1 smd rect (at -4.445 1.905) (size 0.76 2.4) (layers F.Cu F.Paste F.Mask))
  (pad 2 smd rect (at -4.445 -1.905) (size 0.76 2.4) (layers F.Cu F.Paste F.Mask))
  (pad 4 smd rect (at -3.175 -1.905) (size 0.76 2.4) (layers F.Cu F.Paste F.Mask))
  (pad 6 smd rect (at -1.905 -1.905) (size 0.76 2.4) (layers F.Cu F.Paste F.Mask))
  (pad 8 smd rect (at -0.635 -1.905) (size 0.76 2.4) (layers F.Cu F.Paste F.Mask))
  (pad 10 smd rect (at 0.635 -1.905) (size 0.76 2.4) (layers F.Cu F.Paste F.Mask))
  (pad 11 smd rect (at 1.905 1.905) (size 0.76 2.4) (layers F.Cu F.Paste F.Mask))
  (pad 12 smd rect (at 1.905 -1.905) (size 0.76 2.4) (layers F.Cu F.Paste F.Mask))
  (pad 13 smd rect (at 3.175 1.905) (size 0.76 2.4) (layers F.Cu F.Paste F.Mask))
  (pad 14 smd rect (at 3.175 -1.905) (size 0.76 2.4) (layers F.Cu F.Paste F.Mask))
  (pad 15 smd rect (at 4.445 1.905) (size 0.76 2.4) (layers F.Cu F.Paste F.Mask))
  (pad 16 smd rect (at 4.445 -1.905) (size 0.76 2.4) (layers F.Cu F.Paste F.Mask))
)
